<svg width="128" height="128" version="1.1" xmlns="http://www.w3.org/2000/svg" xmlns:xlink="http://www.w3.org/1999/xlink">
 <defs>
  <linearGradient id="b">
   <stop stop-color="#babdb6" offset="0"/>
   <stop stop-color="#d3d7cf" offset="1"/>
  </linearGradient>
  <linearGradient id="n" x1="80.845" x2="186.31" y1="56.672" y2="56.672" gradientTransform="matrix(-.69118 0 0 .74877 132.04 16.47)" gradientUnits="userSpaceOnUse" xlink:href="#b"/>
  <linearGradient id="m" x1="9.3859" x2="171.64" y1="106.84" y2="106.84" gradientTransform="matrix(-.69118 0 0 .74877 132.04 16.47)" gradientUnits="userSpaceOnUse" xlink:href="#b"/>
  <radialGradient id="g" cx="-30.495" cy="38.53" r="1.4464" gradientTransform="matrix(.44001 0 0 .82308 -15.147 22.398)" gradientUnits="userSpaceOnUse" xlink:href="#d"/>
  <linearGradient id="d">
   <stop stop-color="#c4c4c4" offset="0"/>
   <stop offset="1"/>
  </linearGradient>
  <radialGradient id="f" cx="-30.495" cy="38.53" r="1.4464" gradientTransform="matrix(.44001 0 0 .82308 -8.7616 22.398)" gradientUnits="userSpaceOnUse" xlink:href="#d"/>
  <linearGradient id="l" x1="85.616" x2="169.46" y1="47.19" y2="95.912" gradientTransform="matrix(-.72562 0 0 .74877 138.21 16.47)" gradientUnits="userSpaceOnUse">
   <stop stop-opacity=".39316" offset="0"/>
   <stop stop-opacity=".048433" offset=".2881"/>
   <stop stop-opacity="0" offset=".64405"/>
   <stop stop-opacity=".19608" offset=".82202"/>
   <stop stop-opacity=".27451" offset="1"/>
  </linearGradient>
  <linearGradient id="j" x1="114.76" x2="133.33" y1="97.809" y2="97.809" gradientTransform="matrix(.96909 0 0 1 -1.8589 -11.857)" gradientUnits="userSpaceOnUse" xlink:href="#a"/>
  <linearGradient id="i" x1="55.59" x2="76.86" y1="70.452" y2="70.452" gradientTransform="matrix(.96909 0 0 1 -1.487 -12.353)" gradientUnits="userSpaceOnUse" xlink:href="#a"/>
  <linearGradient id="h" x1="51.646" x2="71.127" y1="38.814" y2="38.814" gradientTransform="matrix(.96909 0 0 1 -1.487 -12.353)" gradientUnits="userSpaceOnUse" xlink:href="#c"/>
  <linearGradient id="k" x1="66.894" x2="129.96" y1="93.894" y2="93.894" gradientTransform="matrix(.96909 0 0 1 -1.487 -12.353)" gradientUnits="userSpaceOnUse" xlink:href="#a"/>
  <linearGradient id="a">
   <stop stop-color="#75505b" offset="0"/>
   <stop stop-color="#5c3566" offset="1"/>
  </linearGradient>
  <linearGradient id="c" x1="84.346" x2="108.6" y1="38.03" y2="37.423" gradientTransform="matrix(.96909 0 0 1 -7.5739 -10.01)" gradientUnits="userSpaceOnUse">
   <stop stop-color="#e9b96e" offset="0"/>
   <stop stop-color="#8f5902" offset="1"/>
  </linearGradient>
  <radialGradient id="e" cx="40.644" cy="57.88" r="32.296" gradientTransform="matrix(1 0 0 .9415 0 3.3862)" gradientUnits="userSpaceOnUse">
   <stop stop-color="#729fcf" offset="0"/>
   <stop stop-color="#3465a4" offset="1"/>
  </radialGradient>
 </defs>
 <g stroke="#000" stroke-opacity=".5">
  <path d="m74.476 83.257-58.383 12.532c-1.6391 0.35184-2.4699 0.10321-2.7923 0.95154-0.32239 0.84828-0.13642 2.7936 0.07801 2.9528l46.313 10.05c3.3093 0.71815 7.3777 1.0218 10.59 0.0216l53.421-18.79c3.1786-1.1181 2.1939-1.89-1.1574-2.3232l-38.369-4.9602c-3.3513-0.43325-6.4211-1.1388-9.6993-0.43509z" fill="#355c65" stroke-linecap="round" stroke-width="1.4388"/>
  <path d="m68.469 26.82-62.286-5.7452c-2.0218-0.17295-3.9092 1.5235-3.6529 3.703l8.1739 69.922c0.25635 2.1795 1.0822 2.3172 2.563 2.0411l61.357-13.762c1.9896-0.42615 1.5707-0.18061 1.3364-2.363l-5.3658-49.979c-0.23431-2.1824-0.10535-3.629-2.1262-3.8154z" fill="#355c65" stroke-linecap="round" stroke-width="1.4388"/>
  <path d="m68.469 26.82-61.522-5.2628c-2.0218-0.17295-3.9092 1.5235-3.6529 3.703l8.0149 68.147c0.25635 2.1795 0.08863 3.1127 1.5611 2.7973l61.754-13.227c1.9896-0.42615 1.5707-0.18061 1.3364-2.363l-5.3658-49.979c-0.23431-2.1824-0.10433-3.6424-2.1262-3.8154z" fill="url(#n)" stroke-width=".3597"/>
 </g>
 <g stroke-width=".7194">
  <path d="m74.476 83.257-58.383 12.532c-3.2783 0.70369-4.0178 0.96726-0.51966 1.8714l44.118 11.601c3.2798 0.86244 7.3777 1.0218 10.59 0.0216l53.293-18.652c3.1801-1.113 2.3211-1.5454-1.0301-1.9786l-38.369-4.9602c-3.3513-0.43325-6.4211-1.1388-9.6993-0.43509z" fill="url(#m)"/>
  <path d="m67.903 30.982-59.554-3.5084 6.5671 60.813 58.025-10.428z" fill="url(#e)"/>
  <path d="m89.17 91.239-19.719 5.7886 19.02 4.1347 19.465-6.8912z" fill="#e9b96e"/>
  <path d="m77.144 83.866-54.364 12.326 22.749 5.7972 53.052-15.16z" fill="#e9b96e" fill-opacity=".45098"/>
 </g>
 <g transform="matrix(.69118 0 0 .74877 -3.904 19.585)" fill="none" stroke="#000" stroke-opacity=".5">
  <path d="m63.681 108.23 78.134-19.251" stroke-width=".52913"/>
  <path d="m58.077 106.93 78.024-18.693" stroke-width=".49134"/>
  <path d="m52.107 105.54 78.63-17.975" stroke-width=".45354"/>
  <path d="m46.355 104.21 78.904-17.338" stroke-width=".41575"/>
  <path d="m41.536 103 78.672-16.775" stroke-width=".37795"/>
  <path d="m38.609 102.31 32.913 7.7423 76.822-19.941" stroke-width=".56693"/>
  <path d="m17.725 10.535 86.163 4.6856 7.2887 62.605" stroke-width=".56693"/>
  <path d="m106.13 103.43 28.53-7.7308 27.15 4.0495" stroke-width=".567"/>
 </g>
 <g>
  <ellipse transform="scale(-1,1)" cx="-41.947" cy="27.766" rx=".53976" ry=".82836" fill="#555753" stroke="#2e3436" stroke-width=".3597"/>
  <path d="m24.12 68.942c-1.4509-3.4512-4.8115-2.9705-6.0849 0.87043-1.2733 3.8409 0.61012 17.542 0.61012 17.542l6.0991-1.0738s0.82666-13.888-0.62428-17.339z" fill="#f57900" stroke="#994b00" stroke-width=".44355"/>
  <path d="m41.712 62.652c-5.1731-3.9357-16.868-1.4529-21.176 4.4955-4.3077 5.9484 1.6569 19.566 1.6569 19.566l21.291-3.8609s3.4012-16.265-1.7721-20.2z" fill="#f57900" stroke="#994b00" stroke-width=".44355"/>
  <ellipse transform="matrix(-.9782 .20766 .087264 .99619 0 0)" cx="-25.513" cy="56.866" rx="9.1118" ry="8.8718" fill="#e9b96e" stroke="#665130" stroke-width=".4452"/>
 </g>
 <ellipse transform="matrix(-.9782 .20766 .087264 .99619 0 0)" cx="-28.794" cy="54.667" rx=".52643" ry="1.0779" fill="url(#g)" stroke="#000" stroke-opacity=".5" stroke-width=".2226"/>
 <ellipse transform="matrix(-.9782 .20766 .087264 .99619 0 0)" cx="-22.409" cy="54.667" rx=".52643" ry="1.0779" fill="url(#f)" stroke="#000" stroke-opacity=".5" stroke-width=".2226"/>
 <g>
  <path d="m25.022 54.486s2.6061 4.1227 8.6734 0.65152" fill="none" stroke="#665130" stroke-linecap="round" stroke-width=".8871"/>
  <path d="m40.827 66.966c0.75272 3.7608 4.0656 3.9775 5.9983 0.3927 1.9328-3.585 2.3709-14.758 2.3709-14.758l-5.9983-0.3927s-3.1236 10.997-2.3709 14.758z" fill="#f57900" stroke="#994b00" stroke-width=".44355"/>
  <path d="m50.805 46.989c-0.25299 2.7075-2.2089 4.9221-4.3688 4.9464-5.3072-0.68178-3.0637-11.34-1.7886-4.9124 0.11422 0.52426 0.27681 1.0377 0.48518 1.5321 1.2326 0.61863-0.58573-5.3095 3.0968-5.7823 1.4353-0.18423 2.7836 1.2979 2.5752 4.2161z" fill="#e9b96e" stroke="#665130" stroke-width=".44355"/>
 </g>
 <path d="m67.632 30.982-59.285-3.5084 6.5375 60.813 57.763-10.428z" fill="url(#l)"/>
 <path d="m48.872 27.079c0.59898 6.2986 5.2299 10.678 10.343 9.7818 12.565-3.9585 7.2537-28.203 4.2348-12.421-0.27042 1.2917-0.6554 2.5792-1.1488 3.8418-2.9183 2.0091 1.3868-12.83-7.3322-12.322-3.3982 0.19775-6.5905 4.3025-6.097 11.12z" fill="url(#h)" stroke="#462c01" stroke-width="2"/>
 <g stroke="#2e1b33">
  <path d="m111.64 68.699c3.4353-8.8122 11.392-9.1584 14.406-0.62684 3.0147 8.5316-1.4445 41.803-1.4445 41.803l-14.44 0.15159s-1.9572-32.516 1.478-41.328z" fill="url(#j)"/>
  <path d="m111.64 67.753c3.4353-8.8122 11.392-9.1584 14.406-0.62684 3.0147 8.5316-1.4445 41.803-1.4445 41.803l-14.44 0.15159s-1.9572-32.516 1.478-41.328z" fill="none"/>
  <path d="m70.362 61.08c12.248-11.604 39.939-10.891 50.138 1.2903 10.199 12.181-3.923 47.057-3.923 47.057l-50.334 0.86604s-8.1299-37.609 4.1186-49.213z" fill="url(#k)" stroke-width="2"/>
  <path d="m72.458 70.904c-1.7822 9.2368-9.6259 11.214-14.202 3.5792-4.5762-7.6344-5.6134-33.895-5.6134-33.895l14.202-3.5792s7.3955 24.658 5.6134 33.895z" fill="url(#i)" stroke-width="2"/>
 </g>
 <ellipse cx="95.529" cy="28.019" rx="21.32" ry="22" fill="url(#c)" stroke="#462c01" stroke-width="1.969"/>
</svg>
