<?xml version="1.0" encoding="UTF-8" standalone="no"?>
<svg
   xmlns="http://www.w3.org/2000/svg"
   width="50"
   height="50">
  <path
     style="fill:none;stroke:#000000;stroke-width:2;stroke-linecap:round;"
     d="m 26.445312,40.571703 h 1.097657 c 2.934322,0 5.826536,-1.832892 5.826536,-6.144333 V 33.679323 M 12.923828,31.755859 v 3.518969 c 0,2.934322 2.362553,5.296875 5.296875,5.296875 h 3.351563 M 29.314453,10.052734 C 28.760115,9.8568609 28.166027,9.7460941 27.542969,9.7460941 h -9.322266 c -2.934322,0 -5.296875,2.3625529 -5.296875,5.2968749 v 11.115234"/>
  <path
     style="fill:#000000"
     d="M 0.85465644,18.530274 C -2.7128644,31.844445 5.2161052,45.57782 18.530274,49.145344 31.844444,52.712864 45.577821,44.783896 49.145344,31.469726 52.712863,18.155555 44.783895,4.4221773 31.469726,0.85465644 18.155555,-2.7128645 4.4221773,5.2161054 0.85465644,18.530274 Z M 1.8011701,18.783892 C 5.2312501,5.9826597 18.414874,-1.6289098 31.216106,1.8011701 63.364913,14.078229 43.403446,53.998653 18.783893,48.198828 5.9826593,44.768749 -1.6289098,31.585124 1.8011701,18.783892 Z" />
  <path
     style="fill:#ffffff"
     d="M 24.7,0.440527 C 11.318292,0.440527 0.44052699,11.318292 0.44052699,24.7 0.44052699,38.081708 11.318292,48.959473 24.7,48.959473 38.081708,48.959473 48.959473,38.081708 48.959473,24.7 48.959473,11.318292 38.081708,0.440527 24.7,0.440527 Z m 0,2.7508594 c 11.895524,0 21.508613,9.6130896 21.508613,21.5086136 0,11.895524 -9.613089,21.508613 -21.508613,21.508613 C 12.804476,46.208613 3.1913859,36.595524 3.1913859,24.7 3.1913859,12.804476 12.804476,3.1913864 24.7,3.1913864 Z" />
  <path
     d="m 26.27696,40.253906 h 1.126556 c 3.011575,0 5.436328,-2.403158 5.436328,-5.387912 V 34.10509 M 12.39949,31.609803 v 3.256191 c 0,2.984754 2.424753,5.387912 5.436328,5.387912 H 21.27562 M 29.221638,9.5336666 C 28.652706,9.334427 28.042977,9.2217564 27.403516,9.2217564 h -9.567698 c -3.011575,0 -5.436328,2.4031586 -5.436328,5.3879126 V 25.91594"
     style="fill:#ffffff;"/>
  <path
     style="fill:none;stroke:#000000;stroke-width:2;stroke-linecap:round;"
     d="m 35.244775,11.129655 6.591673,6.591672 c 2.074879,2.074879 2.074878,5.415659 -10e-7,7.490538 L 27.754235,39.294077 c -2.074879,2.074879 -5.415659,2.074879 -7.490538,10e-7 l -6.591673,-6.591673 c -2.074879,-2.074879 -2.074878,-5.415659 10e-7,-7.490538 L 27.754237,11.129655 c 2.074879,-2.0748787 5.41566,-2.0748794 7.490538,0 z"/>
  <path
     d="m 35.18513,10.468955 6.725627,6.725626 c 2.117043,2.117044 2.117042,5.525714 -10e-7,7.642757 L 27.542371,39.205723 c -2.117044,2.117044 -5.525714,2.117044 -7.642758,10e-7 l -6.725626,-6.725626 c -2.117044,-2.117044 -2.117043,-5.525714 10e-7,-7.642758 L 27.542373,10.468955 c 2.117043,-2.1170434 5.525714,-2.1170444 7.642757,0 z"
     style="fill:#ffffff" />
  <path
     style="fill:#000000"
     d="m 27.302209,21.331726 c -5.038435,0.05394 -4.442257,4.343941 -1.256176,5.098813 -1.698374,0.954258 -2.007342,0.854013 -2.582506,0.977417 l 2.127522,2.127522 c 0.07961,-0.625805 -0.106255,-1.013546 0.921929,-2.622892 0.856139,3.167486 4.991903,3.27242 5.084857,-1.285234 -0.18292,-2.737001 0.416155,-4.469693 0.460664,-4.75629 -0.254079,0.02179 -2.155556,0.554706 -4.75629,0.460664 z"/>
  <path
     style="fill:#000000;"
     d="m 18.671081,11.325271 c -2.686018,0 -2.239127,3.157615 -0.818359,4.029297 -1.485879,-0.709785 -3.671425,0.135075 -3.154297,2.044922 0.503946,1.861159 2.681018,1.453234 3.433594,0.320313 -0.313964,2.148087 -0.864822,2.482902 -1.195313,2.949218 h 0.453125 l 1.923828,-1.923828 c -0.0896,-0.29663 -0.174511,-0.631719 -0.248047,-1.054687 0.166264,0.247972 0.411749,0.452025 0.689454,0.613281 l 2.49414,-2.494141 c -0.637486,-0.724079 -1.881971,-0.973036 -2.828125,-0.445312 1.404311,-0.942997 1.90976,-4.039063 -0.75,-4.039063 z"/>
</svg>
