<?xml version="1.0" encoding="UTF-8" standalone="no"?>
<svg
   xmlns="http://www.w3.org/2000/svg"
   width="50"
   height="50">
  <path
     style="fill:none;stroke:#000000;stroke-width:2;"
     d="m 29.879053,7.6833514 c -0.150619,0.017108 -0.306483,0.05363 -0.466422,0.10622 L 9.8545241,14.031971 C 8.5750194,14.452726 7.514357,15.280279 7.514357,17.681986 v 13.968048 c 0,1.776761 0.4999746,2.2078 1.7794793,1.787046 L 29.49208,26.851187 c 1.279504,-0.420755 1.784801,-1.997362 1.784801,-3.350394 V 9.6916427 c 0,-1.1839031 -0.343497,-2.1280073 -1.397828,-2.0082913 z"/>
  <path
     d="m 15.131918,15.2547 c -0.164283,-0.02546 -0.33765,0.007 -0.490234,0.09961 l -1.742187,1.05664 c -0.635669,0.385676 -0.876296,1.178685 -0.611329,1.869141 2.200938,5.737019 8.346237,8.869433 14.298829,7.251953 0.62447,-0.169596 1.079709,-0.892833 1.03125,-1.541016 L 27.46395,21.951966 c -0.02653,-0.35636 -0.300373,-0.636609 -0.652344,-0.667969 L 23.80184,21.016419 c -0.324073,-0.02848 -0.630102,0.163336 -0.751953,0.470703 l -0.738281,1.861328 c -2.195694,-0.270348 -4.280441,-1.325961 -5.808594,-2.990234 l 1.083985,-1.681641 c 0.17905,-0.277433 0.156471,-0.637828 -0.05469,-0.884765 L 15.567465,15.496888 C 15.452708,15.362729 15.296201,15.28016 15.131918,15.2547 Z"
     style="fill:#000000"/>
  <path
     d="m 42.0149,31.637807 c 0.509789,0.261486 2.359513,0.432517 -0.898377,1.7052 l -2.755396,1.076386 -5.510791,2.152772 -5.510791,2.152772 -2.755397,1.076385 -2.755395,1.076386 -3.75478,-1.134324 -3.754775,-1.134314 -1.87739,-0.567162 -1.87739,-0.567162 C 8.8252252,36.911671 7.5250775,35.341035 7.2947585,35.106958"
     style="fill:none;stroke:#000000;stroke-width:2;stroke-linecap:round" />
  <path
     style="fill:#000000"
     d="M 0.85465644,18.530274 C -2.7128644,31.844445 5.2161052,45.57782 18.530274,49.145344 31.844444,52.712864 45.577821,44.783896 49.145344,31.469726 52.712863,18.155555 44.783895,4.4221773 31.469726,0.85465644 18.155555,-2.7128645 4.4221773,5.2161054 0.85465644,18.530274 Z M 1.8011701,18.783892 C 5.2312501,5.9826597 18.414874,-1.6289098 31.216106,1.8011701 63.364913,14.078229 43.403446,53.998653 18.783893,48.198828 5.9826593,44.768749 -1.6289098,31.585124 1.8011701,18.783892 Z" />
  <path
     style="fill:#ffffff;"
     d="m 14.602257,14.672073 c -0.164283,-0.02546 -0.33765,0.0071 -0.490234,0.09961 l -1.742187,1.05664 c -0.635669,0.385676 -0.876296,1.178685 -0.611329,1.869141 2.200938,5.737019 8.346237,8.869433 14.298829,7.251953 0.62447,-0.169596 1.079709,-0.892833 1.03125,-1.541016 l -0.154297,-2.039062 c -0.02653,-0.35636 -0.300373,-0.636609 -0.652344,-0.667969 l -3.009766,-0.267578 c -0.324073,-0.02848 -0.630102,0.163336 -0.751953,0.470703 l -0.738281,1.861328 c -2.195694,-0.270348 -4.280441,-1.325961 -5.808594,-2.990234 l 1.083985,-1.681641 c 0.17905,-0.277433 0.156471,-0.637828 -0.05469,-0.884765 L 15.037804,14.914261 C 14.923047,14.780102 14.76654,14.697533 14.602257,14.672073 Z"/>
  <path
     style="fill:#ffffff"
     d="M 24.7,0.440527 C 11.318292,0.440527 0.44052699,11.318292 0.44052699,24.7 0.44052699,38.081708 11.318292,48.959473 24.7,48.959473 38.081708,48.959473 48.959473,38.081708 48.959473,24.7 48.959473,11.318292 38.081708,0.440527 24.7,0.440527 Z m 0,2.7508594 c 11.895524,0 21.508613,9.6130896 21.508613,21.5086136 0,11.895524 -9.613089,21.508613 -21.508613,21.508613 C 12.804476,46.208613 3.1913859,36.595524 3.1913859,24.7 3.1913859,12.804476 12.804476,3.1913864 24.7,3.1913864 Z" />
  <path
     style="fill:none;stroke:#ffffff;stroke-width:2"
     d="M 9.3362106,13.37497 29.935253,6.8105263 c 1.453811,-0.4632963 2.624208,0.392115 2.624208,1.917962 V 24.300524 c 0,1.525848 -1.170397,3.127215 -2.624208,3.590512 L 9.3362106,34.455479 C 7.8823995,34.918775 6.7120029,34.063365 6.7120029,32.537517 V 16.965482 c 0,-1.525847 1.1703966,-3.127216 2.6242077,-3.590512 z"/>
  <path
     style="fill:none;stroke:#ffffff;stroke-width:2;stroke-linecap:round;"
     d="m 30.060065,27.883245 c 1.845992,-0.692614 3.236392,-0.198788 4.458074,0.21231 l 3.092958,1.040798 3.092959,1.040799 c 3.16893,1.047993 3.595452,0.844497 0.337562,2.11718 l -2.755396,1.076386 -5.510791,2.152772 -5.510791,2.152772 -2.755397,1.076385 -2.755395,1.076386 -3.75478,-1.134324 -3.754775,-1.134314 -1.87739,-0.567162 -1.87739,-0.567162 C 8.7503198,35.862996 7.4501721,34.29236 7.2198531,34.058283"/>
  <path
     style="fill:#ffffff;"
     d="m 30.026513,31.038683 -10.701781,3.453186 5.581619,1.728384 9.671832,-3.753784 z"/>
</svg>
